…
# generate predicted values
df_new_raw$pred <-
  predict(
    glm.1,
    df_new_raw,
    type = "response"
  )

df_new_raw %>% 
  arrange(desc(ctq_total))
```

    ## # A tibble: 97 × 2
    ##    ctq_total  pred
    ##        <dbl> <dbl>
    ##  1        94 36.9 
    ##  2        66 17.0 
    ##  3        50 10.9 
    ##  4        38  7.79
    ##  5        32  6.59
    ##  6        31  6.41
    ##  7        28  5.90
    ##  8        27  5.74
    ##  9        23  5.14
    ## 10        21  4.86
    ## # … with 87 more rows
…
